G04 start of page 2 for group 0 idx 0 *
G04 Title: Proto Board for Explorer 16/32, top *
G04 Creator: pcb 20140316 *
G04 CreationDate: Wed 28 Dec 2016 02:09:48 AM GMT UTC *
G04 For: jjmcd *
G04 Format: Gerber/RS-274X *
G04 PCB-Dimensions (mil): 3900.00 3900.00 *
G04 PCB-Coordinate-Origin: lower left *
%MOIN*%
%FSLAX25Y25*%
%LNTOP*%
%ADD17C,0.0380*%
%ADD16C,0.0350*%
%ADD15C,0.0500*%
%ADD14C,0.0001*%
%ADD13C,0.0600*%
%ADD12C,0.0250*%
%ADD11C,0.0100*%
G54D11*X24000Y184000D02*X20000Y180000D01*
X21000Y181000D01*
X24000Y174000D02*X20000Y170000D01*
X21000Y171000D01*
X10000Y180000D02*X14000Y176000D01*
X10000Y170000D02*X14000Y166000D01*
X10000Y160000D02*X14000Y156000D01*
Y176000D02*X26000D01*
X30000Y180000D01*
X14000Y166000D02*X26000D01*
X30000Y170000D01*
X14000Y156000D02*X26000D01*
X30000Y160000D01*
X24000Y164000D02*X20000Y160000D01*
X21000Y161000D01*
X24000Y154000D02*X20000Y150000D01*
X21000Y151000D01*
X10000Y150000D02*X14000Y146000D01*
X10000Y140000D02*X14000Y136000D01*
Y146000D02*X26000D01*
X30000Y150000D01*
X14000Y136000D02*X26000D01*
X30000Y140000D01*
X24000Y144000D02*X20000Y140000D01*
X21000Y141000D01*
X24000Y134000D02*X20000Y130000D01*
X21000Y131000D01*
X10000Y130000D02*X14000Y126000D01*
X10000Y120000D02*X14000Y116000D01*
Y126000D02*X26000D01*
X30000Y130000D01*
X14000Y116000D02*X26000D01*
X30000Y120000D01*
X80000Y160000D02*X70000D01*
X66000Y164000D01*
X80000Y150000D02*X70000D01*
X66000Y154000D01*
X80000Y140000D02*X70000D01*
X80000Y130000D02*X70000D01*
X66000Y134000D01*
X70000Y140000D02*X66000Y144000D01*
Y154000D02*X24000D01*
X30000Y150000D02*X40000D01*
X66000Y144000D02*X24000D01*
X66000Y134000D02*X24000D01*
X30000Y130000D02*X40000D01*
X66000Y124000D02*X24000D01*
X30000Y120000D02*X40000D01*
X66000Y114000D02*X24000D01*
G54D12*X30000Y140000D02*X50000D01*
G54D11*X24000Y124000D02*X20000Y120000D01*
X21000Y121000D01*
X24000Y114000D02*X20000Y110000D01*
X21000Y111000D01*
X10000Y110000D02*X14000Y106000D01*
X10000Y100000D02*X14000Y96000D01*
Y106000D02*X26000D01*
X30000Y110000D01*
X14000Y96000D02*X26000D01*
X30000Y100000D01*
X80000Y120000D02*X70000D01*
X66000Y124000D01*
X80000Y110000D02*X70000D01*
X66000Y114000D01*
X80000Y100000D02*X70000D01*
X80000Y90000D02*X70000D01*
X66000Y94000D01*
X70000Y100000D02*X66000Y104000D01*
X24000D02*X20000Y100000D01*
X21000Y101000D01*
X24000Y94000D02*X20000Y90000D01*
X21000Y91000D01*
X10000Y90000D02*X14000Y86000D01*
X10000Y80000D02*X14000Y76000D01*
Y86000D02*X26000D01*
X30000Y90000D01*
X14000Y76000D02*X26000D01*
X30000Y80000D01*
Y110000D02*X40000D01*
X66000Y104000D02*X24000D01*
X30000Y100000D02*X40000D01*
X66000Y94000D02*X24000D01*
X30000Y90000D02*X40000D01*
X24000Y84000D02*X20000Y80000D01*
X21000Y81000D01*
X24000Y74000D02*X20000Y70000D01*
X21000Y71000D01*
X10000Y70000D02*X14000Y66000D01*
X10000Y60000D02*X14000Y56000D01*
Y66000D02*X26000D01*
X30000Y70000D01*
X14000Y56000D02*X26000D01*
X30000Y60000D01*
X80000Y80000D02*X70000D01*
X66000Y84000D01*
X80000Y70000D02*X70000D01*
X66000Y74000D01*
X80000Y60000D02*X70000D01*
X80000Y50000D02*X70000D01*
X66000Y54000D01*
X70000Y60000D02*X66000Y64000D01*
X80000Y40000D02*X70000D01*
X66000Y44000D01*
X80000Y30000D02*X70000D01*
X66000Y34000D01*
X80000Y20000D02*X70000D01*
X80000Y10000D02*X70000D01*
X66000Y14000D01*
X70000Y20000D02*X66000Y24000D01*
X24000Y64000D02*X20000Y60000D01*
X21000Y61000D01*
X24000Y54000D02*X20000Y50000D01*
X21000Y51000D01*
X10000Y50000D02*X14000Y46000D01*
X10000Y40000D02*X14000Y36000D01*
Y46000D02*X26000D01*
X30000Y50000D01*
X14000Y36000D02*X26000D01*
X30000Y40000D01*
X66000Y84000D02*X24000D01*
X30000Y80000D02*X40000D01*
X66000Y74000D02*X24000D01*
X30000Y70000D02*X40000D01*
X66000Y64000D02*X24000D01*
X30000Y60000D02*X40000D01*
X66000Y54000D02*X24000D01*
X30000Y50000D02*X40000D01*
X66000Y44000D02*X24000D01*
X30000Y40000D02*X40000D01*
X66000Y34000D02*X24000D01*
X30000Y30000D02*X40000D01*
X66000Y24000D02*X24000D01*
X30000Y20000D02*X40000D01*
X66000Y14000D02*X24000D01*
X30000Y10000D02*X40000D01*
X24000Y44000D02*X20000Y40000D01*
X21000Y41000D01*
X24000Y34000D02*X20000Y30000D01*
X21000Y31000D01*
X10000Y30000D02*X14000Y26000D01*
X10000Y20000D02*X14000Y16000D01*
Y26000D02*X26000D01*
X30000Y30000D01*
X14000Y16000D02*X26000D01*
X30000Y20000D01*
X24000Y24000D02*X20000Y20000D01*
X21000Y21000D01*
X24000Y14000D02*X20000Y10000D01*
X21000Y11000D01*
X10000Y10000D02*X14000Y6000D01*
X26000D01*
X30000Y10000D01*
X10000Y230000D02*X14000Y226000D01*
X10000Y220000D02*X14000Y216000D01*
X10000Y210000D02*X14000Y206000D01*
X10000Y190000D02*X14000Y186000D01*
X10000Y200000D02*X14000Y196000D01*
Y226000D02*X26000D01*
X30000Y230000D01*
X14000Y216000D02*X26000D01*
X30000Y220000D01*
X14000Y206000D02*X26000D01*
X30000Y210000D01*
X20000Y200000D02*X24000Y204000D01*
X14000Y186000D02*X26000D01*
X30000Y190000D01*
X14000Y196000D02*X26000D01*
X30000Y200000D01*
X66000Y194000D02*X24000D01*
X20000Y190000D01*
X21000Y191000D01*
X30000Y190000D02*X40000D01*
X66000Y184000D02*X24000D01*
X30000Y180000D02*X40000D01*
X66000Y174000D02*X24000D01*
X30000Y170000D02*X40000D01*
X66000Y164000D02*X24000D01*
X30000Y160000D02*X40000D01*
X24000Y204000D02*X56000D01*
X30000Y200000D02*X40000D01*
G54D12*X30000Y210000D02*X50000D01*
G54D11*X56000Y204000D02*X60000Y200000D01*
X80000Y210000D02*X70000D01*
X66000Y214000D01*
X80000Y190000D02*X70000D01*
X66000Y194000D01*
X80000Y180000D02*X70000D01*
X80000Y170000D02*X70000D01*
X66000Y174000D01*
X70000Y180000D02*X66000Y184000D01*
G54D12*X60000Y200000D02*X80000D01*
G54D11*X24000Y254000D02*X20000Y250000D01*
X21000Y251000D01*
X10000Y250000D02*X14000Y246000D01*
X26000D01*
X30000Y250000D01*
X24000Y244000D02*X19500Y239500D01*
X30000Y240000D02*X26000Y236000D01*
X14000D01*
X10000Y240000D01*
G54D12*X68000Y268000D02*X12000D01*
X10000Y270000D01*
Y330000D02*X30000D01*
G54D11*X40000Y240000D02*X30000D01*
X66000Y234000D02*X24000D01*
X20000Y230000D01*
X21000Y231000D01*
X30000Y230000D02*X40000D01*
X66000Y224000D02*X24000D01*
X20000Y220000D01*
X21000Y221000D01*
X24000Y214000D02*X20000Y210000D01*
X21000Y211000D01*
X30000Y220000D02*X40000D01*
X66000Y214000D02*X24000D01*
X66000Y254000D02*X24000D01*
X30000Y250000D02*X40000D01*
X80000D02*X70000D01*
X66000Y254000D01*
X90000Y250000D02*X94000Y246000D01*
X66000Y244000D02*X24000D01*
X80000Y240000D02*X70000D01*
X66000Y244000D01*
X70000Y230000D02*X66000Y234000D01*
X80000Y230000D02*X70000D01*
X80000Y220000D02*X70000D01*
X66000Y224000D01*
X90000Y240000D02*X94000Y236000D01*
X90000Y230000D02*X94000Y226000D01*
Y236000D02*X106000D01*
X104000Y234000D02*X100000Y230000D01*
X101000Y231000D01*
X110000Y230000D02*X120000D01*
X106000Y236000D02*X110000Y240000D01*
X94000Y226000D02*X106000D01*
X110000Y230000D01*
X90000Y220000D02*X94000Y216000D01*
X106000D01*
X110000Y220000D01*
X146000Y194000D02*X150000Y190000D01*
X146000Y204000D02*X150000Y200000D01*
G54D12*X110000D02*X130000D01*
G54D11*X160000Y240000D02*X150000D01*
X146000Y244000D01*
X104000D01*
X100000Y240000D01*
X101000Y241000D01*
X110000Y240000D02*X120000D01*
X100000Y250000D02*X105000Y255000D01*
X145000D01*
X150000Y250000D01*
X149500Y250500D01*
X150000Y250000D02*X160000D01*
G54D12*X110000D02*X130000D01*
G54D11*X94000Y246000D02*X106000D01*
X110000Y250000D01*
X160000Y230000D02*X150000D01*
X146000Y234000D01*
X104000D01*
X160000Y220000D02*X150000D01*
X146000Y224000D01*
X104000D01*
X100000Y220000D01*
X101000Y221000D01*
X110000Y220000D02*X120000D01*
X90000Y210000D02*X94000Y206000D01*
X106000D01*
X104000Y204000D02*X100000Y200000D01*
X101000Y201000D01*
X90000Y200000D02*X94000Y196000D01*
X106000D01*
Y206000D02*X110000Y210000D01*
X120000D01*
X106000Y196000D02*X110000Y200000D01*
X146000Y214000D02*X104000D01*
X100000Y210000D01*
X101000Y211000D01*
X146000Y204000D02*X104000D01*
X146000Y194000D02*X104000D01*
X146000Y184000D02*X104000D01*
X146000Y174000D02*X104000D01*
X160000Y210000D02*X150000D01*
X160000Y180000D02*X150000D01*
X146000Y184000D01*
X150000Y210000D02*X146000Y214000D01*
G54D12*X140000Y190000D02*X160000D01*
X150000Y200000D02*X160000D01*
G54D11*X104000Y194000D02*X100000Y190000D01*
X101000Y191000D01*
X90000Y190000D02*X94000Y186000D01*
X106000D01*
X110000Y190000D01*
X120000D01*
X110000Y180000D02*X120000D01*
X90000D02*X94000Y176000D01*
X106000D01*
X110000Y180000D01*
X90000Y170000D02*X94000Y166000D01*
X106000D01*
X110000Y170000D01*
X104000Y184000D02*X100000Y180000D01*
X101000Y181000D01*
X104000Y174000D02*X100000Y170000D01*
X101000Y171000D01*
X110000Y170000D02*X120000D01*
X104000Y164000D02*X100000Y160000D01*
X101000Y161000D01*
X110000Y160000D02*X120000D01*
X160000Y170000D02*X150000D01*
X146000Y174000D01*
X160000Y160000D02*X150000D01*
X160000Y150000D02*X150000D01*
X146000Y154000D01*
X150000Y160000D02*X146000Y164000D01*
X104000D01*
X146000Y154000D02*X104000D01*
X110000Y150000D02*X120000D01*
X146000Y144000D02*X104000D01*
Y154000D02*X100000Y150000D01*
X101000Y151000D01*
X104000Y144000D02*X100000Y140000D01*
X101000Y141000D01*
X146000Y134000D02*X104000D01*
X110000Y130000D02*X120000D01*
X146000Y124000D02*X104000D01*
X100000Y100000D02*X104000Y104000D01*
X146000D01*
X106000Y96000D02*X110000Y100000D01*
G54D12*X131000D01*
G54D11*X160000Y140000D02*X150000D01*
X146000Y144000D01*
X160000Y130000D02*X150000D01*
X146000Y134000D01*
X160000Y120000D02*X150000D01*
X146000Y124000D01*
X150000Y110000D02*X146000Y114000D01*
Y104000D02*X150000Y100000D01*
X160000D01*
G54D12*X150000Y110000D02*X160000D01*
G54D11*Y90000D02*X150000D01*
X146000Y94000D01*
X160000Y80000D02*X150000D01*
X146000Y84000D01*
X160000Y70000D02*X150000D01*
X146000Y74000D01*
X160000Y50000D02*X150000D01*
X146000Y54000D01*
X160000Y40000D02*X150000D01*
X146000Y44000D01*
G54D12*X140000Y60000D02*X160000D01*
G54D11*Y30000D02*X150000D01*
X146000Y34000D01*
X160000Y20000D02*X150000D01*
X146000Y24000D01*
X160000Y10000D02*X150000D01*
X146000Y14000D01*
Y54000D02*X104000D01*
G54D12*X110000Y60000D02*X120000D01*
G54D11*X104000Y54000D02*X100000Y50000D01*
X101000Y51000D01*
X104000Y44000D02*X100000Y40000D01*
X101000Y41000D01*
X110000Y50000D02*X120000D01*
X146000Y44000D02*X104000D01*
X110000Y40000D02*X120000D01*
X146000Y34000D02*X104000D01*
X146000Y24000D02*X104000D01*
G54D12*X110000Y30000D02*X130000D01*
G54D11*X104000Y34000D02*X100000Y30000D01*
X101000Y31000D01*
X104000Y24000D02*X100000Y20000D01*
X101000Y21000D01*
X104000Y14000D02*X100000Y10000D01*
X101000Y11000D01*
X110000Y20000D02*X120000D01*
X110000Y10000D02*X120000D01*
X146000Y14000D02*X104000D01*
X90000Y160000D02*X94000Y156000D01*
X90000Y150000D02*X94000Y146000D01*
X90000Y140000D02*X94000Y136000D01*
X90000Y130000D02*X94000Y126000D01*
Y156000D02*X106000D01*
X94000Y146000D02*X106000D01*
X110000Y150000D01*
X106000Y156000D02*X110000Y160000D01*
X94000Y136000D02*X106000D01*
X110000Y140000D01*
X120000D01*
X94000Y126000D02*X106000D01*
X110000Y130000D01*
X90000Y90000D02*X94000Y86000D01*
X90000Y70000D02*X94000Y66000D01*
X90000Y100000D02*X94000Y96000D01*
X106000D01*
X90000Y120000D02*X94000Y116000D01*
X90000Y110000D02*X94000Y106000D01*
X106000D01*
X94000Y116000D02*X106000D01*
X110000Y120000D01*
X120000D01*
X106000Y106000D02*X110000Y110000D01*
X120000D01*
X94000Y86000D02*X106000D01*
X110000Y90000D01*
X104000Y134000D02*X100000Y130000D01*
X101000Y131000D01*
X104000Y124000D02*X100000Y120000D01*
X101000Y121000D01*
X146000Y114000D02*X104000D01*
X146000Y94000D02*X104000D01*
X146000Y84000D02*X104000D01*
X146000Y74000D02*X104000D01*
Y114000D02*X100000Y110000D01*
X101000Y111000D01*
X104000Y94000D02*X100000Y90000D01*
X101000Y91000D01*
X104000Y84000D02*X100000Y80000D01*
X101000Y81000D01*
X104000Y74000D02*X100000Y70000D01*
X101000Y71000D01*
X146000Y64000D02*X104000D01*
X100000Y60000D01*
X101000Y61000D01*
X110000Y90000D02*X120000D01*
X90000Y80000D02*X94000Y76000D01*
X106000D01*
X94000Y66000D02*X106000D01*
Y76000D02*X110000Y80000D01*
X120000D01*
X106000Y66000D02*X110000Y70000D01*
X120000D01*
X90000Y60000D02*X94000Y56000D01*
X90000Y50000D02*X94000Y46000D01*
X90000Y40000D02*X94000Y36000D01*
X90000Y30000D02*X94000Y26000D01*
Y56000D02*X106000D01*
X110000Y60000D01*
X94000Y46000D02*X106000D01*
X110000Y50000D01*
X94000Y36000D02*X106000D01*
X110000Y40000D01*
X94000Y26000D02*X106000D01*
X110000Y30000D01*
X90000Y20000D02*X94000Y16000D01*
X90000Y10000D02*X94000Y6000D01*
Y16000D02*X106000D01*
X94000Y6000D02*X106000D01*
X110000Y10000D01*
X106000Y16000D02*X110000Y20000D01*
G54D13*X10000Y170000D03*
Y160000D03*
Y150000D03*
Y140000D03*
Y130000D03*
X20000Y120000D03*
Y130000D03*
Y140000D03*
Y150000D03*
Y160000D03*
Y170000D03*
Y180000D03*
Y190000D03*
X10000Y180000D03*
G54D14*G36*
X27000Y183000D02*Y177000D01*
X33000D01*
Y183000D01*
X27000D01*
G37*
G36*
Y173000D02*Y167000D01*
X33000D01*
Y173000D01*
X27000D01*
G37*
G36*
Y163000D02*Y157000D01*
X33000D01*
Y163000D01*
X27000D01*
G37*
G36*
Y153000D02*Y147000D01*
X33000D01*
Y153000D01*
X27000D01*
G37*
G36*
Y143000D02*Y137000D01*
X33000D01*
Y143000D01*
X27000D01*
G37*
G36*
Y133000D02*Y127000D01*
X33000D01*
Y133000D01*
X27000D01*
G37*
G36*
Y123000D02*Y117000D01*
X33000D01*
Y123000D01*
X27000D01*
G37*
G36*
Y213000D02*Y207000D01*
X33000D01*
Y213000D01*
X27000D01*
G37*
G36*
Y203000D02*Y197000D01*
X33000D01*
Y203000D01*
X27000D01*
G37*
G36*
Y193000D02*Y187000D01*
X33000D01*
Y193000D01*
X27000D01*
G37*
G54D13*X40000Y220000D03*
Y200000D03*
Y190000D03*
Y180000D03*
Y170000D03*
Y160000D03*
Y150000D03*
Y130000D03*
Y120000D03*
G54D14*G36*
X37000Y143000D02*Y137000D01*
X43000D01*
Y143000D01*
X37000D01*
G37*
G36*
X47000D02*Y137000D01*
X53000D01*
Y143000D01*
X47000D01*
G37*
G36*
X57000Y203000D02*Y197000D01*
X63000D01*
Y203000D01*
X57000D01*
G37*
G54D13*X70000Y250000D03*
Y240000D03*
Y230000D03*
Y220000D03*
G54D14*G36*
X77000Y203000D02*Y197000D01*
X83000D01*
Y203000D01*
X77000D01*
G37*
G36*
Y253000D02*Y247000D01*
X83000D01*
Y253000D01*
X77000D01*
G37*
G36*
Y243000D02*Y237000D01*
X83000D01*
Y243000D01*
X77000D01*
G37*
G36*
Y233000D02*Y227000D01*
X83000D01*
Y233000D01*
X77000D01*
G37*
G36*
Y223000D02*Y217000D01*
X83000D01*
Y223000D01*
X77000D01*
G37*
G36*
Y213000D02*Y207000D01*
X83000D01*
Y213000D01*
X77000D01*
G37*
G36*
X67000Y203000D02*Y197000D01*
X73000D01*
Y203000D01*
X67000D01*
G37*
G54D13*X70000Y210000D03*
Y190000D03*
G54D14*G36*
X77000Y193000D02*Y187000D01*
X83000D01*
Y193000D01*
X77000D01*
G37*
G36*
X117000Y253000D02*Y247000D01*
X123000D01*
Y253000D01*
X117000D01*
G37*
G36*
X127000D02*Y247000D01*
X133000D01*
Y253000D01*
X127000D01*
G37*
G36*
X107000D02*Y247000D01*
X113000D01*
Y253000D01*
X107000D01*
G37*
G54D13*X100000Y250000D03*
X120000Y240000D03*
G54D14*G36*
X107000Y243000D02*Y237000D01*
X113000D01*
Y243000D01*
X107000D01*
G37*
G54D13*X120000Y230000D03*
G54D14*G36*
X107000Y233000D02*Y227000D01*
X113000D01*
Y233000D01*
X107000D01*
G37*
G54D13*X120000Y210000D03*
G54D14*G36*
X117000Y203000D02*Y197000D01*
X123000D01*
Y203000D01*
X117000D01*
G37*
G36*
X127000D02*Y197000D01*
X133000D01*
Y203000D01*
X127000D01*
G37*
G36*
X87000Y253000D02*Y247000D01*
X93000D01*
Y253000D01*
X87000D01*
G37*
G54D13*X100000Y230000D03*
Y240000D03*
X90000D03*
Y230000D03*
Y220000D03*
Y210000D03*
Y200000D03*
Y190000D03*
X100000D03*
Y200000D03*
Y210000D03*
Y220000D03*
X70000Y180000D03*
G54D14*G36*
X77000Y183000D02*Y177000D01*
X83000D01*
Y183000D01*
X77000D01*
G37*
G54D13*X90000Y180000D03*
X100000D03*
X70000Y170000D03*
Y160000D03*
Y150000D03*
G54D14*G36*
X77000Y163000D02*Y157000D01*
X83000D01*
Y163000D01*
X77000D01*
G37*
G54D13*X90000Y160000D03*
G54D14*G36*
X77000Y173000D02*Y167000D01*
X83000D01*
Y173000D01*
X77000D01*
G37*
G54D13*X90000Y170000D03*
X100000Y160000D03*
Y170000D03*
X120000Y220000D03*
G54D14*G36*
X107000Y223000D02*Y217000D01*
X113000D01*
Y223000D01*
X107000D01*
G37*
G36*
Y213000D02*Y207000D01*
X113000D01*
Y213000D01*
X107000D01*
G37*
G36*
Y203000D02*Y197000D01*
X113000D01*
Y203000D01*
X107000D01*
G37*
G54D13*X120000Y190000D03*
G54D14*G36*
X107000Y193000D02*Y187000D01*
X113000D01*
Y193000D01*
X107000D01*
G37*
G36*
Y183000D02*Y177000D01*
X113000D01*
Y183000D01*
X107000D01*
G37*
G54D13*X120000Y180000D03*
Y170000D03*
Y160000D03*
Y150000D03*
Y140000D03*
Y130000D03*
G54D14*G36*
X107000Y173000D02*Y167000D01*
X113000D01*
Y173000D01*
X107000D01*
G37*
G36*
Y163000D02*Y157000D01*
X113000D01*
Y163000D01*
X107000D01*
G37*
G36*
Y153000D02*Y147000D01*
X113000D01*
Y153000D01*
X107000D01*
G37*
G36*
Y143000D02*Y137000D01*
X113000D01*
Y143000D01*
X107000D01*
G37*
G36*
Y133000D02*Y127000D01*
X113000D01*
Y133000D01*
X107000D01*
G37*
G36*
X157000Y253000D02*Y247000D01*
X163000D01*
Y253000D01*
X157000D01*
G37*
G54D13*X150000Y250000D03*
G54D14*G36*
X157000Y243000D02*Y237000D01*
X163000D01*
Y243000D01*
X157000D01*
G37*
G36*
Y233000D02*Y227000D01*
X163000D01*
Y233000D01*
X157000D01*
G37*
G36*
Y223000D02*Y217000D01*
X163000D01*
Y223000D01*
X157000D01*
G37*
G36*
Y213000D02*Y207000D01*
X163000D01*
Y213000D01*
X157000D01*
G37*
G54D13*X150000Y240000D03*
Y230000D03*
Y220000D03*
Y210000D03*
G54D14*G36*
X147000Y203000D02*Y197000D01*
X153000D01*
Y203000D01*
X147000D01*
G37*
G54D13*X150000Y180000D03*
Y170000D03*
Y160000D03*
Y150000D03*
Y140000D03*
Y130000D03*
Y120000D03*
G54D14*G36*
X147000Y193000D02*Y187000D01*
X153000D01*
Y193000D01*
X147000D01*
G37*
G36*
X137000D02*Y187000D01*
X143000D01*
Y193000D01*
X137000D01*
G37*
G54D13*X70000Y140000D03*
Y130000D03*
Y120000D03*
G54D14*G36*
X77000Y133000D02*Y127000D01*
X83000D01*
Y133000D01*
X77000D01*
G37*
G36*
Y143000D02*Y137000D01*
X83000D01*
Y143000D01*
X77000D01*
G37*
G36*
Y153000D02*Y147000D01*
X83000D01*
Y153000D01*
X77000D01*
G37*
G54D13*X90000Y150000D03*
Y140000D03*
Y130000D03*
G54D14*G36*
X77000Y123000D02*Y117000D01*
X83000D01*
Y123000D01*
X77000D01*
G37*
G54D13*X100000Y120000D03*
Y130000D03*
Y140000D03*
Y150000D03*
Y80000D03*
Y90000D03*
Y100000D03*
Y110000D03*
G54D14*G36*
X147000Y113000D02*Y107000D01*
X153000D01*
Y113000D01*
X147000D01*
G37*
G54D13*X10000Y120000D03*
Y110000D03*
Y100000D03*
Y90000D03*
X20000Y100000D03*
X40000D03*
Y90000D03*
G54D14*G36*
X27000Y103000D02*Y97000D01*
X33000D01*
Y103000D01*
X27000D01*
G37*
G36*
Y93000D02*Y87000D01*
X33000D01*
Y93000D01*
X27000D01*
G37*
G54D13*X20000Y110000D03*
G54D14*G36*
X27000Y113000D02*Y107000D01*
X33000D01*
Y113000D01*
X27000D01*
G37*
G54D13*X40000Y110000D03*
X70000D03*
G54D14*G36*
X77000Y113000D02*Y107000D01*
X83000D01*
Y113000D01*
X77000D01*
G37*
G54D13*X70000Y100000D03*
Y90000D03*
X10000Y80000D03*
X20000D03*
X40000D03*
X70000D03*
D03*
G54D14*G36*
X27000Y83000D02*Y77000D01*
X33000D01*
Y83000D01*
X27000D01*
G37*
G54D13*X20000Y50000D03*
Y60000D03*
Y70000D03*
Y90000D03*
G54D14*G36*
X27000Y73000D02*Y67000D01*
X33000D01*
Y73000D01*
X27000D01*
G37*
G36*
Y63000D02*Y57000D01*
X33000D01*
Y63000D01*
X27000D01*
G37*
G36*
Y53000D02*Y47000D01*
X33000D01*
Y53000D01*
X27000D01*
G37*
G36*
X77000Y83000D02*Y77000D01*
X83000D01*
Y83000D01*
X77000D01*
G37*
G36*
Y93000D02*Y87000D01*
X83000D01*
Y93000D01*
X77000D01*
G37*
G54D13*X10000Y70000D03*
Y60000D03*
Y50000D03*
Y40000D03*
Y30000D03*
Y20000D03*
Y10000D03*
X20000D03*
G54D14*G36*
X27000Y13000D02*Y7000D01*
X33000D01*
Y13000D01*
X27000D01*
G37*
G54D13*X20000Y20000D03*
Y30000D03*
Y40000D03*
G54D14*G36*
X27000Y43000D02*Y37000D01*
X33000D01*
Y43000D01*
X27000D01*
G37*
G36*
Y33000D02*Y27000D01*
X33000D01*
Y33000D01*
X27000D01*
G37*
G36*
Y23000D02*Y17000D01*
X33000D01*
Y23000D01*
X27000D01*
G37*
G54D13*X40000Y30000D03*
Y20000D03*
Y10000D03*
X70000Y30000D03*
Y20000D03*
Y10000D03*
G54D14*G36*
X157000Y203000D02*Y197000D01*
X163000D01*
Y203000D01*
X157000D01*
G37*
G36*
Y193000D02*Y187000D01*
X163000D01*
Y193000D01*
X157000D01*
G37*
G36*
Y183000D02*Y177000D01*
X163000D01*
Y183000D01*
X157000D01*
G37*
G36*
Y173000D02*Y167000D01*
X163000D01*
Y173000D01*
X157000D01*
G37*
G36*
Y163000D02*Y157000D01*
X163000D01*
Y163000D01*
X157000D01*
G37*
G36*
Y153000D02*Y147000D01*
X163000D01*
Y153000D01*
X157000D01*
G37*
G36*
Y143000D02*Y137000D01*
X163000D01*
Y143000D01*
X157000D01*
G37*
G36*
Y133000D02*Y127000D01*
X163000D01*
Y133000D01*
X157000D01*
G37*
G36*
Y123000D02*Y117000D01*
X163000D01*
Y123000D01*
X157000D01*
G37*
G36*
Y113000D02*Y107000D01*
X163000D01*
Y113000D01*
X157000D01*
G37*
G36*
Y103000D02*Y97000D01*
X163000D01*
Y103000D01*
X157000D01*
G37*
G36*
Y93000D02*Y87000D01*
X163000D01*
Y93000D01*
X157000D01*
G37*
G36*
Y83000D02*Y77000D01*
X163000D01*
Y83000D01*
X157000D01*
G37*
G54D13*X150000Y80000D03*
Y100000D03*
Y90000D03*
Y70000D03*
G54D14*G36*
X157000Y73000D02*Y67000D01*
X163000D01*
Y73000D01*
X157000D01*
G37*
G36*
Y63000D02*Y57000D01*
X163000D01*
Y63000D01*
X157000D01*
G37*
G36*
Y53000D02*Y47000D01*
X163000D01*
Y53000D01*
X157000D01*
G37*
G36*
Y43000D02*Y37000D01*
X163000D01*
Y43000D01*
X157000D01*
G37*
G36*
Y33000D02*Y27000D01*
X163000D01*
Y33000D01*
X157000D01*
G37*
G36*
Y23000D02*Y17000D01*
X163000D01*
Y23000D01*
X157000D01*
G37*
G36*
Y13000D02*Y7000D01*
X163000D01*
Y13000D01*
X157000D01*
G37*
G54D13*X150000Y50000D03*
Y40000D03*
Y30000D03*
Y20000D03*
Y10000D03*
G54D14*G36*
X147000Y63000D02*Y57000D01*
X153000D01*
Y63000D01*
X147000D01*
G37*
G36*
X118000Y103000D02*Y97000D01*
X124000D01*
Y103000D01*
X118000D01*
G37*
G36*
X128000D02*Y97000D01*
X134000D01*
Y103000D01*
X128000D01*
G37*
G54D13*X120000Y120000D03*
Y110000D03*
Y90000D03*
Y80000D03*
Y70000D03*
G54D14*G36*
X107000Y123000D02*Y117000D01*
X113000D01*
Y123000D01*
X107000D01*
G37*
G54D13*X90000Y120000D03*
G54D14*G36*
X107000Y113000D02*Y107000D01*
X113000D01*
Y113000D01*
X107000D01*
G37*
G36*
Y103000D02*Y97000D01*
X113000D01*
Y103000D01*
X107000D01*
G37*
G54D13*X40000Y70000D03*
Y60000D03*
Y50000D03*
Y40000D03*
X70000Y60000D03*
Y70000D03*
Y50000D03*
Y40000D03*
G54D14*G36*
X77000Y43000D02*Y37000D01*
X83000D01*
Y43000D01*
X77000D01*
G37*
G36*
Y53000D02*Y47000D01*
X83000D01*
Y53000D01*
X77000D01*
G37*
G36*
Y63000D02*Y57000D01*
X83000D01*
Y63000D01*
X77000D01*
G37*
G36*
Y73000D02*Y67000D01*
X83000D01*
Y73000D01*
X77000D01*
G37*
G54D13*X90000Y60000D03*
X100000D03*
X90000Y50000D03*
X100000D03*
X90000Y40000D03*
X100000D03*
G54D14*G36*
X77000Y13000D02*Y7000D01*
X83000D01*
Y13000D01*
X77000D01*
G37*
G36*
Y23000D02*Y17000D01*
X83000D01*
Y23000D01*
X77000D01*
G37*
G36*
Y33000D02*Y27000D01*
X83000D01*
Y33000D01*
X77000D01*
G37*
G36*
X107000Y13000D02*Y7000D01*
X113000D01*
Y13000D01*
X107000D01*
G37*
G54D13*X120000Y10000D03*
X90000Y30000D03*
X100000D03*
X90000Y20000D03*
X100000D03*
X90000Y10000D03*
X100000D03*
G54D14*G36*
X107000Y23000D02*Y17000D01*
X113000D01*
Y23000D01*
X107000D01*
G37*
G36*
Y33000D02*Y27000D01*
X113000D01*
Y33000D01*
X107000D01*
G37*
G36*
Y43000D02*Y37000D01*
X113000D01*
Y43000D01*
X107000D01*
G37*
G36*
Y53000D02*Y47000D01*
X113000D01*
Y53000D01*
X107000D01*
G37*
G36*
Y63000D02*Y57000D01*
X113000D01*
Y63000D01*
X107000D01*
G37*
G36*
Y73000D02*Y67000D01*
X113000D01*
Y73000D01*
X107000D01*
G37*
G36*
Y83000D02*Y77000D01*
X113000D01*
Y83000D01*
X107000D01*
G37*
G36*
Y93000D02*Y87000D01*
X113000D01*
Y93000D01*
X107000D01*
G37*
G54D13*X120000Y40000D03*
Y20000D03*
G54D14*G36*
X117000Y33000D02*Y27000D01*
X123000D01*
Y33000D01*
X117000D01*
G37*
G36*
X127000D02*Y27000D01*
X133000D01*
Y33000D01*
X127000D01*
G37*
G54D13*X120000Y50000D03*
G54D14*G36*
X137000Y63000D02*Y57000D01*
X143000D01*
Y63000D01*
X137000D01*
G37*
G36*
X117000D02*Y57000D01*
X123000D01*
Y63000D01*
X117000D01*
G37*
G36*
X77000Y103000D02*Y97000D01*
X83000D01*
Y103000D01*
X77000D01*
G37*
G54D13*X90000Y110000D03*
Y100000D03*
Y90000D03*
Y80000D03*
Y70000D03*
X100000D03*
X10000Y220000D03*
Y210000D03*
Y200000D03*
Y190000D03*
G54D14*G36*
X7000Y253000D02*Y247000D01*
X13000D01*
Y253000D01*
X7000D01*
G37*
G54D13*X10000Y240000D03*
Y230000D03*
G54D14*G36*
X27000Y223000D02*Y217000D01*
X33000D01*
Y223000D01*
X27000D01*
G37*
G54D13*X40000Y250000D03*
G54D14*G36*
X27000Y253000D02*Y247000D01*
X33000D01*
Y253000D01*
X27000D01*
G37*
G36*
Y233000D02*Y227000D01*
X33000D01*
Y233000D01*
X27000D01*
G37*
G36*
Y243000D02*Y237000D01*
X33000D01*
Y243000D01*
X27000D01*
G37*
G54D13*X40000Y240000D03*
Y230000D03*
G54D14*G36*
X37000Y213000D02*Y207000D01*
X43000D01*
Y213000D01*
X37000D01*
G37*
G36*
X47000D02*Y207000D01*
X53000D01*
Y213000D01*
X47000D01*
G37*
G54D13*X20000Y200000D03*
Y210000D03*
Y220000D03*
Y230000D03*
Y240000D03*
Y250000D03*
G54D15*X200000Y361000D02*Y339000D01*
X210000Y361000D02*Y339000D01*
X220000Y361000D02*Y339000D01*
X189000Y370000D02*X211000D01*
X189000Y380000D02*X211000D01*
X180000Y311000D02*Y289000D01*
X190000Y311000D02*Y289000D01*
X200000Y311000D02*Y289000D01*
X179000Y320000D02*X201000D01*
X189000Y330000D02*X211000D01*
X230000Y311000D02*Y289000D01*
X240000Y311000D02*Y289000D01*
X250000Y311000D02*Y289000D01*
X260000Y311000D02*Y289000D01*
X270000Y311000D02*Y289000D01*
X239000Y320000D02*X261000D01*
X259000D02*X281000D01*
X249000Y330000D02*X271000D01*
X210000Y311000D02*Y289000D01*
X220000Y311000D02*Y289000D01*
X199000Y320000D02*X221000D01*
X219000D02*X241000D01*
X209000Y330000D02*X231000D01*
X229000D02*X251000D01*
X230000Y361000D02*Y339000D01*
X240000Y361000D02*Y339000D01*
X209000Y370000D02*X231000D01*
X209000Y380000D02*X231000D01*
X229000Y370000D02*X251000D01*
X249000D02*X271000D01*
X269000D02*X291000D01*
X229000Y380000D02*X251000D01*
X249000D02*X271000D01*
X269000D02*X291000D01*
X250000Y361000D02*Y339000D01*
X260000Y361000D02*Y339000D01*
X270000Y361000D02*Y339000D01*
X269000Y330000D02*X291000D01*
X280000Y361000D02*Y339000D01*
X290000Y361000D02*Y339000D01*
X289000Y330000D02*X311000D01*
X300000Y361000D02*Y339000D01*
X310000Y361000D02*Y339000D01*
X320000Y361000D02*Y339000D01*
X330000Y361000D02*Y339000D01*
X340000Y361000D02*Y339000D01*
X350000Y361000D02*Y339000D01*
X360000Y361000D02*Y339000D01*
X370000Y361000D02*Y339000D01*
X380000Y361000D02*Y339000D01*
X279000Y320000D02*X301000D01*
X299000D02*X321000D01*
X319000D02*X341000D01*
X339000D02*X361000D01*
X349000D02*X371000D01*
X309000Y330000D02*X331000D01*
X329000D02*X351000D01*
X289000Y370000D02*X311000D01*
X289000Y380000D02*X311000D01*
X309000Y370000D02*X331000D01*
X309000Y380000D02*X331000D01*
X329000Y370000D02*X351000D01*
X349000D02*X371000D01*
X329000Y380000D02*X351000D01*
X349000D02*X371000D01*
X359000D02*X381000D01*
X349000Y330000D02*X371000D01*
X359000D02*X381000D01*
X380000Y381000D02*Y359000D01*
Y341000D02*Y319000D01*
X10000Y301000D02*Y279000D01*
Y321000D02*Y299000D01*
Y281000D02*Y259000D01*
X20000Y301000D02*Y279000D01*
X30000Y311000D02*Y289000D01*
X19000Y320000D02*X41000D01*
X40000Y311000D02*Y289000D01*
X50000Y311000D02*Y289000D01*
X60000Y311000D02*Y289000D01*
X70000Y311000D02*Y289000D01*
X39000Y320000D02*X61000D01*
X59000D02*X81000D01*
X80000Y311000D02*Y289000D01*
X90000Y311000D02*Y289000D01*
X100000Y311000D02*Y289000D01*
X110000Y311000D02*Y289000D01*
X120000Y311000D02*Y289000D01*
X79000Y320000D02*X101000D01*
X99000D02*X121000D01*
X99000Y280000D02*X121000D01*
X69000D02*X91000D01*
X10000Y381000D02*Y359000D01*
X9000Y380000D02*X31000D01*
X29000D02*X51000D01*
X49000D02*X71000D01*
X69000D02*X91000D01*
X19000Y370000D02*X41000D01*
X39000D02*X61000D01*
X59000D02*X81000D01*
X69000D02*X91000D01*
X10000Y341000D02*Y319000D01*
Y361000D02*Y339000D01*
X20000Y321000D02*Y299000D01*
Y361000D02*Y339000D01*
Y371000D02*Y349000D01*
X30000Y361000D02*Y339000D01*
X40000Y361000D02*Y339000D01*
X50000Y361000D02*Y339000D01*
X29000Y330000D02*X51000D01*
X60000Y361000D02*Y339000D01*
X70000Y361000D02*Y339000D01*
X80000Y361000D02*Y339000D01*
X90000Y361000D02*Y339000D01*
X49000Y330000D02*X71000D01*
X69000D02*X91000D01*
X100000Y361000D02*Y339000D01*
X110000Y361000D02*Y339000D01*
X89000Y330000D02*X111000D01*
X109000D02*X131000D01*
X150000Y361000D02*Y339000D01*
X160000Y361000D02*Y339000D01*
X170000Y361000D02*Y339000D01*
X149000Y330000D02*X171000D01*
X169000D02*X191000D01*
X130000Y311000D02*Y289000D01*
X140000Y311000D02*Y289000D01*
X150000Y311000D02*Y289000D01*
X119000Y320000D02*X141000D01*
X139000D02*X161000D01*
X129000Y280000D02*X151000D01*
X120000Y361000D02*Y339000D01*
X130000Y361000D02*Y339000D01*
X140000Y361000D02*Y339000D01*
X129000Y330000D02*X151000D01*
X89000Y370000D02*X111000D01*
X109000D02*X131000D01*
X129000D02*X151000D01*
X89000Y380000D02*X111000D01*
X109000D02*X131000D01*
X129000D02*X151000D01*
X180000Y361000D02*Y339000D01*
X190000Y361000D02*Y339000D01*
X149000Y370000D02*X171000D01*
X149000Y380000D02*X171000D01*
X169000Y370000D02*X191000D01*
X169000Y380000D02*X191000D01*
X160000Y311000D02*Y289000D01*
X170000Y311000D02*Y289000D01*
X159000Y320000D02*X181000D01*
X159000Y270000D02*X181000D01*
X159000Y280000D02*X181000D01*
X280000Y311000D02*Y289000D01*
X290000Y311000D02*Y289000D01*
X300000Y311000D02*Y289000D01*
X310000Y311000D02*Y289000D01*
X320000Y311000D02*Y289000D01*
X330000Y311000D02*Y289000D01*
X340000Y311000D02*Y289000D01*
X350000Y311000D02*Y289000D01*
X360000Y311000D02*Y289000D01*
X370000Y311000D02*Y289000D01*
X380000Y311000D02*Y289000D01*
Y321000D02*Y299000D01*
X370000Y321000D02*Y299000D01*
X279000Y230000D02*X301000D01*
X279000Y220000D02*X301000D01*
X279000Y210000D02*X301000D01*
X279000Y270000D02*X301000D01*
X279000Y280000D02*X301000D01*
X300000Y261000D02*Y239000D01*
X290000Y261000D02*Y239000D01*
X280000Y261000D02*Y239000D01*
X309000Y240000D02*X331000D01*
X309000Y250000D02*X331000D01*
X309000Y260000D02*X331000D01*
X309000Y270000D02*X331000D01*
X309000Y280000D02*X331000D01*
X360000Y261000D02*Y239000D01*
X350000Y261000D02*Y239000D01*
X340000Y261000D02*Y239000D01*
X380000Y291000D02*Y269000D01*
Y271000D02*Y249000D01*
Y251000D02*Y229000D01*
X370000Y291000D02*Y269000D01*
Y271000D02*Y249000D01*
Y251000D02*Y229000D01*
Y231000D02*Y209000D01*
X339000Y270000D02*X361000D01*
X339000Y280000D02*X361000D01*
X339000Y170000D02*X361000D01*
X279000D02*X301000D01*
X309000Y180000D02*X331000D01*
X309000Y190000D02*X331000D01*
X309000Y200000D02*X331000D01*
X300000Y201000D02*Y179000D01*
X290000Y201000D02*Y179000D01*
X280000Y201000D02*Y179000D01*
X380000Y231000D02*Y209000D01*
Y211000D02*Y189000D01*
X370000Y211000D02*Y189000D01*
Y191000D02*Y169000D01*
X350000Y201000D02*Y179000D01*
X360000Y201000D02*Y179000D01*
X339000Y210000D02*X361000D01*
X339000Y220000D02*X361000D01*
X339000Y230000D02*X361000D01*
X340000Y201000D02*Y179000D01*
X310000Y231000D02*Y209000D01*
X320000Y231000D02*Y209000D01*
X330000Y231000D02*Y209000D01*
X219000Y150000D02*X241000D01*
X219000Y160000D02*X241000D01*
X219000Y170000D02*X241000D01*
X250000Y171000D02*Y149000D01*
X260000Y171000D02*Y149000D01*
X270000Y171000D02*Y149000D01*
X189000Y180000D02*X211000D01*
X189000Y190000D02*X211000D01*
X189000Y200000D02*X211000D01*
X180000Y201000D02*Y179000D01*
X170000Y201000D02*Y179000D01*
X190000Y231000D02*Y209000D01*
X200000Y231000D02*Y209000D01*
X210000Y231000D02*Y209000D01*
X170000Y231000D02*Y209000D01*
X180000Y231000D02*Y209000D01*
X249000Y200000D02*X271000D01*
X219000Y210000D02*X241000D01*
X219000Y220000D02*X241000D01*
X219000Y230000D02*X241000D01*
X250000Y231000D02*Y209000D01*
X260000Y231000D02*Y209000D01*
X270000Y231000D02*Y209000D01*
X249000Y190000D02*X271000D01*
X249000Y180000D02*X271000D01*
X240000Y201000D02*Y179000D01*
X230000Y201000D02*Y179000D01*
X220000Y201000D02*Y179000D01*
X189000Y240000D02*X211000D01*
X189000Y250000D02*X211000D01*
X189000Y260000D02*X211000D01*
X189000Y270000D02*X211000D01*
X189000Y280000D02*X211000D01*
X180000Y261000D02*Y239000D01*
X170000Y261000D02*Y239000D01*
X249000Y260000D02*X271000D01*
X249000Y250000D02*X271000D01*
X249000Y240000D02*X271000D01*
X249000Y270000D02*X271000D01*
X219000D02*X241000D01*
X249000Y280000D02*X271000D01*
X219000D02*X241000D01*
X240000Y261000D02*Y239000D01*
X230000Y261000D02*Y239000D01*
X220000Y261000D02*Y239000D01*
X380000Y191000D02*Y169000D01*
Y171000D02*Y149000D01*
Y151000D02*Y129000D01*
Y131000D02*Y109000D01*
Y111000D02*Y89000D01*
Y91000D02*Y69000D01*
Y71000D02*Y49000D01*
Y51000D02*Y29000D01*
Y31000D02*Y9000D01*
X370000Y171000D02*Y149000D01*
Y151000D02*Y129000D01*
Y131000D02*Y109000D01*
Y111000D02*Y89000D01*
Y91000D02*Y69000D01*
Y71000D02*Y49000D01*
X339000Y90000D02*X361000D01*
X339000Y100000D02*X361000D01*
X339000Y110000D02*X361000D01*
X340000Y141000D02*Y119000D01*
X350000Y81000D02*Y59000D01*
Y141000D02*Y119000D01*
X360000Y81000D02*Y59000D01*
Y141000D02*Y119000D01*
X370000Y51000D02*Y29000D01*
Y31000D02*Y9000D01*
X339000Y30000D02*X361000D01*
X339000Y40000D02*X361000D01*
X339000Y50000D02*X361000D01*
X340000Y81000D02*Y59000D01*
X339000Y20000D02*X361000D01*
X339000Y10000D02*X361000D01*
X339000Y150000D02*X361000D01*
X339000Y160000D02*X361000D01*
X219000Y50000D02*X241000D01*
X219000Y40000D02*X241000D01*
X219000Y30000D02*X241000D01*
X270000Y51000D02*Y29000D01*
X260000Y51000D02*Y29000D01*
X250000Y51000D02*Y29000D01*
X249000Y20000D02*X271000D01*
X219000D02*X241000D01*
X249000Y80000D02*X271000D01*
X270000Y111000D02*Y89000D01*
X260000Y111000D02*Y89000D01*
X250000Y111000D02*Y89000D01*
X210000Y51000D02*Y29000D01*
X200000Y51000D02*Y29000D01*
X190000Y51000D02*Y29000D01*
X170000Y51000D02*Y29000D01*
X180000Y51000D02*Y29000D01*
X189000Y20000D02*X211000D01*
X249000Y60000D02*X271000D01*
X249000Y70000D02*X271000D01*
X240000Y81000D02*Y59000D01*
X230000Y81000D02*Y59000D01*
X220000Y81000D02*Y59000D01*
X279000Y50000D02*X301000D01*
X279000Y40000D02*X301000D01*
X309000Y60000D02*X331000D01*
X309000Y70000D02*X331000D01*
X280000Y81000D02*Y59000D01*
X290000Y81000D02*Y59000D01*
X300000Y81000D02*Y59000D01*
X309000Y80000D02*X331000D01*
X279000Y100000D02*X301000D01*
X279000Y90000D02*X301000D01*
X330000Y111000D02*Y89000D01*
X320000Y111000D02*Y89000D01*
X310000Y111000D02*Y89000D01*
X309000Y120000D02*X331000D01*
X309000Y130000D02*X331000D01*
X309000Y140000D02*X331000D01*
X279000Y110000D02*X301000D01*
X290000Y141000D02*Y119000D01*
X300000Y141000D02*Y119000D01*
X280000Y141000D02*Y119000D01*
X279000Y150000D02*X301000D01*
X279000Y160000D02*X301000D01*
X310000Y171000D02*Y149000D01*
X320000Y171000D02*Y149000D01*
X330000Y171000D02*Y149000D01*
Y51000D02*Y29000D01*
X320000Y51000D02*Y29000D01*
X310000Y51000D02*Y29000D01*
X279000Y30000D02*X301000D01*
X279000Y20000D02*X301000D01*
X309000D02*X331000D01*
X309000Y10000D02*X331000D01*
X189000Y140000D02*X211000D01*
X180000Y141000D02*Y119000D01*
X170000Y141000D02*Y119000D01*
X189000Y130000D02*X211000D01*
X189000Y120000D02*X211000D01*
X170000Y171000D02*Y149000D01*
X180000Y171000D02*Y149000D01*
X190000Y171000D02*Y149000D01*
X200000Y171000D02*Y149000D01*
X210000Y171000D02*Y149000D01*
X219000Y90000D02*X241000D01*
X219000Y100000D02*X241000D01*
X249000Y120000D02*X271000D01*
X249000Y130000D02*X271000D01*
X249000Y140000D02*X271000D01*
X219000Y110000D02*X241000D01*
X220000Y141000D02*Y119000D01*
X230000Y141000D02*Y119000D01*
X240000Y141000D02*Y119000D01*
X189000Y80000D02*X211000D01*
X189000Y70000D02*X211000D01*
X189000Y60000D02*X211000D01*
X210000Y111000D02*Y89000D01*
X200000Y111000D02*Y89000D01*
X190000Y111000D02*Y89000D01*
X170000Y111000D02*Y89000D01*
X180000Y111000D02*Y89000D01*
Y81000D02*Y59000D01*
X170000Y81000D02*Y59000D01*
G54D13*X68000Y268000D03*
G54D16*G54D17*M02*
